-------------------------------------------------------------------------------
Test set: com.acciona.challenge.service.HashtagServiceImplTest
-------------------------------------------------------------------------------
Tests run: 1, Failures: 0, Errors: 0, Skipped: 0, Time elapsed: 1.242 s - in com.acciona.challenge.service.HashtagServiceImplTest
